{
    "name": {
        "simple": "zenkimi",
        "normal": "ぜんぶ君のせいだ。",
        "alt": "ぜん君。"
    },
    "debut": "2015-04",
    "website": "http://kiminosei.com",
    "sns": {
        "twitter":"https://twitter.com/zenbukiminosei",
        "youtube":"https://www.youtube.com/channel/UCMbKuWB6u9A2ZT-wAq6DjGw"
    },
    "image": [
        "/img/group/zenkimi-2.jpg",
        "/img/group/zenkimi-1.jpg"
    ],
    "members":[
        {
            "image": [
                "/img/member/zenkimi/kisaragi_megumi-1.jpg"
            ],
            "name": {
                "r": "Megumi",
                "k": "愛海",
                "f": "めぐみ"
            },
            "surname": {
                "r": "Kisaragi",
                "k": "如月",
                "f": "きさらぎ"
            },
            "birthdate": "????-01-11",
            "birthplace": {
                "country": "",
                "city": ""
            },
            "height": 156,
            "joined":"2015",
            "graduated":"",
            "blood_type": "AB",
            "zodiac_sign": "Capricorn",
            "sns":{
                "showroom":"",
                "twitter":"https://twitter.com/zenkimi_megumi",
                "instagram":"https://www.instagram.com/rock_moon_zks/"
            },
            "trivia":[
                "Hobbies: Feeling a story",
                "Special skill: Being the leader",
                "Member color: Red",
                "Weapon: Samurai sword"
            ]
        },
        {
            "image": [
                "/img/member/zenkimi/mashiro-1.jpg"
            ],
            "name": {
                "r": "Mashiro",
                "k": "ましろ",
                "f": "ましろ"
            },
            "surname": {
                "r": "",
                "k": "",
                "f": ""
            },
            "birthdate": "????-03-27",
            "birthplace": {
                "country": "",
                "city": ""
            },
            "height": 152,
            "joined":"2015",
            "graduated":"",
            "blood_type": "A",
            "zodiac_sign": "Aries",
            "sns":{
                "showroom":"",
                "twitter":"https://twitter.com/zenkimi_mashiro",
                "instagram":""
            },
            "trivia":[
                "Hobbies: watch anime",
                "Special skill: stay at home",
                "Member color: White",
                "A hurting word: Aren't you going to school anymore?",
                "Weapon: 2 handguns"
            ]
        },
        {
            "image": [
                "/img/member/zenkimi/hitomi_yotsu-1.jpg"
            ],
            "name": {
                "r": "Yotsu",
                "k": "四",
                "f": "よつ"
            },
            "surname": {
                "r": "Hitomi",
                "k": "一十三",
                "f": "ひとみ"
            },
            "birthdate": "????-02-12",
            "birthplace": {
                "country": "",
                "city": ""
            },
            "height": 159,
            "joined":"2015",
            "graduated":"",
            "blood_type": "A",
            "zodiac_sign": "Aquarius",
            "sns":{
                "showroom":"",
                "twitter":"https://twitter.com/zenkimi_yotsu",
                "instagram":""
            },
            "trivia":[
                "Likes: Chocolate, Monster",
                "Hobbies: Eating delicious things",
                "Special skill: Drawing",
                "Member color: Green",
                "A hurting word: Chine",
                "Weapon: Poison"
            ]
        },
        {
            "image": [
                "/img/member/zenkimi/nagi_akebono-1.jpg"
            ],
            "name": {
                "r": "Akebono",
                "k": "あけぼの",
                "f": "あけぼの"
            },
            "surname": {
                "r": "Nagi",
                "k": "凪",
                "f": "なぎ"
            },
            "birthdate": "????-11-20",
            "birthplace": {
                "country": "",
                "city": ""
            },
            "height": "",
            "joined":"2019",
            "graduated":"",
            "blood_type": "O",
            "zodiac_sign": "Scorpio",
            "sns":{
                "showroom":"",
                "twitter":"https://twitter.com/zenkimi_akbn",
                "instagram":""
            },
            "trivia":[
                "Hobbies: Doll play",
                "Special skill: Destruction and regeneration",
                "Member Color: Light yellow",
                "A hurting word: can't you be normal?",
                "Weapon: Nunchaku"
            ]
        },
        {
            "image": [
                "/img/member/zenkimi/yukinojou_oyatsu-1.jpg"
            ],
            "name": {
                "r": "Oyatsu",
                "k": "十五時",
                "f": "おやつ"
            },
            "surname": {
                "r": "Yukinojou",
                "k": "征之丞",
                "f": "ゆきのじょう"
            },
            "birthdate": "????-01-27",
            "birthplace": {
                "country": "",
                "city": ""
            },
            "height": "",
            "joined":"2019",
            "graduated":"",
            "blood_type": "",
            "zodiac_sign": "Aquarius",
            "sns":{
                "showroom":"",
                "twitter":"https://twitter.com/zenkimi_oyatsu",
                "instagram":""
            },
            "trivia":[
                "Hobbies: collecting ribbons",
                "Special skill: Ribbon tied",
                "Member color: Sky blue",
                "A hurting word: bothersome",
                "Weapon: Bow and arrow"
            ]
        }
    ],
    "discography":[]
}